1 10 20
100 200 125
201 210 89
900 1000 174
2453 34534 311
67 345 144
75 3 116
234 677 145
867 45 171
234 76 128
8967 334 262
5 95098 351
34958 34 311
2342 655 183
337 7655 262
29 455 144
38 55 113
2 2 2
5 5 6
4949 39 238
200 3 125
555 666 145
2929 3030 173
3534 6546 262
234 45646 324
34 7556 262
7567 6767 257
9824 202 262
2838 154040 375
548954 329239 470
494 383 142
995 3882 238
2003 4888 238
588 9903 262
2993 39994 324
588 333 142
22 5554 238
99 3330 217
599 2200 182
585 3003 217
49 3009 217
283 994 179
200 994 179
798 3478 217
2309 2 183
39384 9890 324
44 3 112
2039 6857 262
2993 5478 238
3848 3985 189
678594 209384 509
578 2344 183
239 544 144
2090 3445 217
67847 329 340
2390 53453 340
23 858 171
546 8983 262
23900 656456 509
789 34384 311
293 56456 340
787 456 171
899 324 179
5878 342 238
8989 34 262
575 399 142
299 3030 217
57495 234234 443
983 1231 182
9834 54 262
8765 234 262
489 9302 262
234 645 144
12345 54321 340
695 3334 217
234 654646 509
324 9494 262
3453 6654 262
432 123 144
959 33 179
5986 234 238
123 555 144
55500 3344 340
12 44 112
6868 33 262
1 999999 525
444 33 144
22 33 112
44 55 113
119 22 119
400 3 144
2399 3 183
12 99 119
34543 98 311
654 76 145
383 9 144
12 445 144
23 556 144
234 4 128
69 3 113
234 56456 340
6 9 20
3 4 8
1412 9432 262
23 75 116
44 45 17
