1673 471 182
7537 3317 262
9 3188 217
2248 4833 238
5887 7884 262
242 5556 238
9440 7769 260
6248 7434 257
952 2495 209
6928 4551 262
4559 6952 262
5696 4372 236
250 1104 179
6988 7980 252
6800 2037 262
9398 8020 260
1132 2371 183
8966 8770 247
1889 9000 262
520 788 171
5681 751 238
8064 5226 262
7821 6762 257
7736 7407 239
8306 6002 262
3853 3943 176
2731 87 209
3619 2132 217
5296 1474 238
5110 2520 238
4050 5872 236
2948 3851 238
4824 5697 236
2291 3565 217
556 1232 182
4601 5993 236
6808 8047 257
9967 3747 262
8966 6928 257
8879 9161 247
6202 5298 262
5087 7651 262
3363 3942 238
6337 2060 262
1463 3755 238
6207 6037 262
2552 2575 178
2811 2694 173
319 1195 182
5012 6995 262
